module github.com/replicatedhq/troubleshoot

go 1.19

require (
	github.com/ahmetalpbalkan/go-cursor v0.0.0-20131010032410-8136607ea412
	github.com/apparentlymart/go-cidr v1.1.0
	github.com/blang/semver/v4 v4.0.0
	github.com/containers/image/v5 v5.25.0
	github.com/distribution/distribution/v3 v3.0.0-20221208165359-362910506bc2
	github.com/fatih/color v1.15.0
	github.com/go-logr/logr v1.2.4
	github.com/go-redis/redis/v7 v7.4.1
	github.com/go-sql-driver/mysql v1.7.1
	github.com/gobwas/glob v0.2.3
	github.com/godbus/dbus/v5 v5.1.0
	github.com/google/gofuzz v1.2.0
	github.com/google/uuid v1.3.0
	github.com/gorilla/handlers v1.5.1
	github.com/hashicorp/go-getter v1.7.1
	github.com/hashicorp/go-multierror v1.1.1
	github.com/jackc/pgx/v5 v5.4.1
	github.com/longhorn/go-iscsi-helper v0.0.0-20210330030558-49a327fb024e
	github.com/manifoldco/promptui v0.9.0
	github.com/mattn/go-isatty v0.0.19
	github.com/mholt/archiver/v3 v3.5.1
	github.com/microsoft/go-mssqldb v1.3.0
	github.com/opencontainers/image-spec v1.1.0-rc2.0.20221005185240-3a7f492d3f1b
	github.com/pkg/errors v0.9.1
	github.com/replicatedhq/termui/v3 v3.1.1-0.20200811145416-f40076d26851
	github.com/segmentio/ksuid v1.0.4
	github.com/shirou/gopsutil/v3 v3.23.6
	github.com/spf13/cobra v1.7.0
	github.com/spf13/pflag v1.0.5
	github.com/spf13/viper v1.16.0
	github.com/stretchr/testify v1.8.4
	github.com/tj/go-spin v1.1.0
	go.opentelemetry.io/otel v1.16.0
	go.opentelemetry.io/otel/sdk v1.16.0
	golang.org/x/sync v0.3.0
	gopkg.in/yaml.v2 v2.4.0
	k8s.io/api v0.27.3
	k8s.io/apiextensions-apiserver v0.27.2
	k8s.io/apimachinery v0.27.3
	k8s.io/apiserver v0.27.3
	k8s.io/cli-runtime v0.27.3
	k8s.io/client-go v0.27.3
	k8s.io/klog/v2 v2.100.1
	oras.land/oras-go v1.2.3
	sigs.k8s.io/controller-runtime v0.15.0
)

require (
	cloud.google.com/go/compute/metadata v0.2.3 // indirect
	github.com/AdaLogics/go-fuzz-headers v0.0.0-20230106234847-43070de90fa1 // indirect
	github.com/cpuguy83/go-md2man/v2 v2.0.2 // indirect
	github.com/docker/distribution v2.8.2+incompatible // indirect
	github.com/emicklei/go-restful/v3 v3.10.2 // indirect
	github.com/evanphx/json-patch/v5 v5.6.0 // indirect
	github.com/go-logr/stdr v1.2.2 // indirect
	github.com/golang-sql/civil v0.0.0-20220223132316-b832511892a9 // indirect
	github.com/golang-sql/sqlexp v0.1.0 // indirect
	github.com/google/s2a-go v0.1.3 // indirect
	github.com/googleapis/enterprise-certificate-proxy v0.2.3 // indirect
	github.com/jackc/pgpassfile v1.0.0 // indirect
	github.com/jackc/pgservicefile v0.0.0-20221227161230-091c0ba34f0a // indirect
	github.com/lufia/plan9stats v0.0.0-20211012122336-39d0f177ccd0 // indirect
	github.com/mistifyio/go-zfs/v3 v3.0.0 // indirect
	github.com/power-devops/perfstat v0.0.0-20210106213030-5aafc221ea8c // indirect
	github.com/russross/blackfriday/v2 v2.1.0 // indirect
	github.com/shoenig/go-m1cpu v0.1.6 // indirect
	github.com/sirupsen/logrus v1.9.3 // indirect
	github.com/sylabs/sif/v2 v2.11.1 // indirect
	github.com/tchap/go-patricia/v2 v2.3.1 // indirect
	go.opentelemetry.io/otel/metric v1.16.0 // indirect
	go.opentelemetry.io/otel/trace v1.16.0 // indirect
	go.uber.org/atomic v1.10.0 // indirect
	go.uber.org/multierr v1.11.0 // indirect
	golang.org/x/exp v0.0.0-20230321023759-10a507213a29 // indirect
	golang.org/x/mod v0.10.0 // indirect
	golang.org/x/tools v0.9.1 // indirect
)

require (
	cloud.google.com/go v0.110.0 // indirect
	cloud.google.com/go/compute v1.19.0 // indirect
	cloud.google.com/go/iam v0.13.0 // indirect
	cloud.google.com/go/storage v1.28.1 // indirect
	github.com/Azure/go-ansiterm v0.0.0-20210617225240-d185dfc1b5a1 // indirect
	github.com/BurntSushi/toml v1.2.1 // indirect
	github.com/Microsoft/go-winio v0.6.0 // indirect
	github.com/Microsoft/hcsshim v0.10.0-rc.7 // indirect
	github.com/andybalholm/brotli v1.0.1 // indirect
	github.com/aws/aws-sdk-go v1.44.122 // indirect
	github.com/beorn7/perks v1.0.1 // indirect
	github.com/bgentry/go-netrc v0.0.0-20140422174119-9fd32a8b3d3d // indirect
	github.com/c9s/goprocinfo v0.0.0-20170724085704-0010a05ce49f // indirect
	github.com/cespare/xxhash/v2 v2.2.0 // indirect
	github.com/chzyer/readline v1.5.1 // indirect
	github.com/containerd/cgroups v1.1.0 // indirect
	github.com/containerd/containerd v1.7.0 // indirect
	github.com/containerd/stargz-snapshotter/estargz v0.14.3 // indirect
	github.com/containers/libtrust v0.0.0-20230121012942-c1716e8a8d01 // indirect
	github.com/containers/ocicrypt v1.1.7 // indirect
	github.com/containers/storage v1.46.0 // indirect
	github.com/cyphar/filepath-securejoin v0.2.3 // indirect
	github.com/davecgh/go-spew v1.1.1 // indirect
	github.com/docker/cli v23.0.1+incompatible // indirect
	github.com/docker/docker v23.0.3+incompatible // indirect
	github.com/docker/docker-credential-helpers v0.7.0 // indirect
	github.com/docker/go-connections v0.4.0 // indirect
	github.com/docker/go-metrics v0.0.1 // indirect
	github.com/docker/go-units v0.5.0 // indirect
	github.com/dsnet/compress v0.0.2-0.20210315054119-f66993602bf5 // indirect
	github.com/evanphx/json-patch v5.6.0+incompatible // indirect
	github.com/felixge/httpsnoop v1.0.3 // indirect
	github.com/fsnotify/fsnotify v1.6.0 // indirect
	github.com/go-errors/errors v1.4.2 // indirect
	github.com/go-ole/go-ole v1.2.6 // indirect
	github.com/go-openapi/jsonpointer v0.19.6 // indirect
	github.com/go-openapi/jsonreference v0.20.2 // indirect
	github.com/go-openapi/swag v0.22.3 // indirect
	github.com/gogo/protobuf v1.3.2 // indirect
	github.com/golang/groupcache v0.0.0-20210331224755-41bb18bfe9da // indirect
	github.com/golang/protobuf v1.5.3 // indirect
	github.com/golang/snappy v0.0.4 // indirect
	github.com/google/btree v1.0.1 // indirect
	github.com/google/gnostic v0.6.9 // indirect
	github.com/google/go-cmp v0.5.9 // indirect
	github.com/google/go-intervals v0.0.2 // indirect
	github.com/google/shlex v0.0.0-20191202100458-e7afc7fbc510 // indirect
	github.com/googleapis/gax-go/v2 v2.8.0 // indirect
	github.com/gorilla/mux v1.8.0 // indirect
	github.com/gregjones/httpcache v0.0.0-20180305231024-9cad4c3443a7 // indirect
	github.com/hashicorp/errwrap v1.1.0 // indirect
	github.com/hashicorp/go-cleanhttp v0.5.2 // indirect
	github.com/hashicorp/go-safetemp v1.0.0 // indirect
	github.com/hashicorp/go-version v1.6.0
	github.com/hashicorp/hcl v1.0.0 // indirect
	github.com/imdario/mergo v0.3.15 // indirect
	github.com/inconshreveable/mousetrap v1.1.0 // indirect
	github.com/jmespath/go-jmespath v0.4.0 // indirect
	github.com/josharian/intern v1.0.0 // indirect
	github.com/json-iterator/go v1.1.12 // indirect
	github.com/klauspost/compress v1.16.3 // indirect
	github.com/klauspost/pgzip v1.2.6-0.20220930104621-17e8dac29df8 // indirect
	github.com/liggitt/tabwriter v0.0.0-20181228230101-89fcab3d43de // indirect
	github.com/magiconair/properties v1.8.7 // indirect
	github.com/mailru/easyjson v0.7.7 // indirect
	github.com/mattn/go-colorable v0.1.13 // indirect
	github.com/mattn/go-runewidth v0.0.14 // indirect
	github.com/mattn/go-shellwords v1.0.12 // indirect
	github.com/matttproud/golang_protobuf_extensions v1.0.4 // indirect
	github.com/mitchellh/go-homedir v1.1.0 // indirect
	github.com/mitchellh/go-testing-interface v1.14.1 // indirect
	github.com/mitchellh/go-wordwrap v1.0.1
	github.com/mitchellh/mapstructure v1.5.0 // indirect
	github.com/moby/locker v1.0.1 // indirect
	github.com/moby/spdystream v0.2.0 // indirect
	github.com/moby/sys/mountinfo v0.6.2 // indirect
	github.com/moby/term v0.0.0-20221205130635-1aeaba878587 // indirect
	github.com/modern-go/concurrent v0.0.0-20180306012644-bacd9c7ef1dd // indirect
	github.com/modern-go/reflect2 v1.0.2 // indirect
	github.com/monochromegane/go-gitignore v0.0.0-20200626010858-205db1a8cc00 // indirect
	github.com/morikuni/aec v1.0.0 // indirect
	github.com/munnerz/goautoneg v0.0.0-20191010083416-a7dc8b61c822 // indirect
	github.com/nsf/termbox-go v0.0.0-20190121233118-02980233997d // indirect
	github.com/nwaples/rardecode v1.1.2 // indirect
	github.com/opencontainers/go-digest v1.0.0 // indirect
	github.com/opencontainers/runc v1.1.5 // indirect
	github.com/opencontainers/runtime-spec v1.1.0-rc.1 // indirect
	github.com/opencontainers/selinux v1.11.0 // indirect
	github.com/ostreedev/ostree-go v0.0.0-20210805093236-719684c64e4f // indirect
	github.com/pelletier/go-toml/v2 v2.0.8 // indirect
	github.com/peterbourgon/diskv v2.0.1+incompatible // indirect
	github.com/pierrec/lz4/v4 v4.1.2 // indirect
	github.com/pmezard/go-difflib v1.0.0 // indirect
	github.com/prometheus/client_golang v1.15.1 // indirect
	github.com/prometheus/client_model v0.4.0 // indirect
	github.com/prometheus/common v0.42.0 // indirect
	github.com/prometheus/procfs v0.9.0 // indirect
	github.com/rivo/uniseg v0.4.4 // indirect
	github.com/spf13/afero v1.9.5 // indirect
	github.com/spf13/cast v1.5.1 // indirect
	github.com/spf13/jwalterweatherman v1.1.0 // indirect
	github.com/subosito/gotenv v1.4.2 // indirect
	github.com/syndtr/gocapability v0.0.0-20200815063812-42c35b437635 // indirect
	github.com/tklauser/go-sysconf v0.3.11 // indirect
	github.com/tklauser/numcpus v0.6.0 // indirect
	github.com/ulikunitz/xz v0.5.11 // indirect
	github.com/vbatts/tar-split v0.11.3 // indirect
	github.com/xi2/xz v0.0.0-20171230120015-48954b6210f8 // indirect
	github.com/xlab/treeprint v1.1.0 // indirect
	github.com/yusufpapurcu/wmi v1.2.3 // indirect
	go.opencensus.io v0.24.0 // indirect
	go.starlark.net v0.0.0-20200306205701-8dd3e2ee1dd5 // indirect
	golang.org/x/crypto v0.9.0 // indirect
	golang.org/x/net v0.10.0 // indirect
	golang.org/x/oauth2 v0.7.0 // indirect
	golang.org/x/sys v0.9.0 // indirect
	golang.org/x/term v0.8.0 // indirect
	golang.org/x/text v0.11.0
	golang.org/x/time v0.3.0 // indirect
	golang.org/x/xerrors v0.0.0-20220907171357-04be3eba64a2 // indirect
	google.golang.org/api v0.122.0 // indirect
	google.golang.org/appengine v1.6.7 // indirect
	google.golang.org/genproto v0.0.0-20230410155749-daa745c078e1 // indirect
	google.golang.org/grpc v1.55.0 // indirect
	google.golang.org/protobuf v1.30.0 // indirect
	gopkg.in/inf.v0 v0.9.1 // indirect
	gopkg.in/ini.v1 v1.67.0 // indirect
	gopkg.in/yaml.v3 v3.0.1 // indirect
	k8s.io/kube-openapi v0.0.0-20230501164219-8b0f38b5fd1f // indirect
	k8s.io/metrics v0.27.3
	k8s.io/utils v0.0.0-20230406110748-d93618cff8a2
	periph.io/x/host/v3 v3.8.2
	sigs.k8s.io/json v0.0.0-20221116044647-bc3834ca7abd // indirect
	sigs.k8s.io/kustomize/api v0.13.2 // indirect
	sigs.k8s.io/kustomize/kyaml v0.14.1 // indirect
	sigs.k8s.io/structured-merge-diff/v4 v4.2.3 // indirect
	sigs.k8s.io/yaml v1.3.0 // indirect
)

replace (
	github.com/StackExchange/wmi => github.com/yusufpapurcu/wmi v1.2.2
	github.com/go-ole/go-ole => github.com/go-ole/go-ole v1.2.6 // needed for arm builds
)
